<?xml version="1.0" encoding="UTF-8"?>
<svg width="900px" height="630px" viewBox="0 0 900 630" version="1.1" xmlns="http://www.w3.org/2000/svg" xmlns:xlink="http://www.w3.org/1999/xlink">
    <!-- Generator: Sketch 53 (72520) - https://sketchapp.com -->
    <title>kubernetes</title>
    <desc>Created with Sketch.</desc>
    <defs>
        <linearGradient x1="-1143.75%" y1="100%" x2="-1143.75%" y2="0%" id="linearGradient-kubernetes-1">
            <stop stop-color="#272359" stop-opacity="0" offset="8%"></stop>
            <stop stop-color="#272359" stop-opacity="0.6" offset="100%"></stop>
        </linearGradient>
        <linearGradient x1="-1013.61433%" y1="-0.0025%" x2="-1013.61433%" y2="99.9975%" id="linearGradient-kubernetes-2">
            <stop stop-color="#272359" stop-opacity="0" offset="8%"></stop>
            <stop stop-color="#272359" stop-opacity="0.6" offset="100%"></stop>
        </linearGradient>
        <linearGradient x1="-1268.75%" y1="0%" x2="-1268.75%" y2="100%" id="linearGradient-kubernetes-3">
            <stop stop-color="#3F3177" stop-opacity="0" offset="8%"></stop>
            <stop stop-color="#3F3177" stop-opacity="0.6" offset="100%"></stop>
        </linearGradient>
        <linearGradient x1="-1443.75%" y1="0%" x2="-1443.75%" y2="100%" id="linearGradient-kubernetes-4">
            <stop stop-color="#3F3177" stop-opacity="0" offset="8%"></stop>
            <stop stop-color="#3F3177" stop-opacity="0.6" offset="100%"></stop>
        </linearGradient>
        <linearGradient x1="0%" y1="-500%" x2="100%" y2="-500%" id="linearGradient-kubernetes-5">
            <stop stop-color="#3F3177" stop-opacity="0" offset="8%"></stop>
            <stop stop-color="#E4E4E4" stop-opacity="0.4" offset="100%"></stop>
        </linearGradient>
        <linearGradient x1="0%" y1="-500%" x2="100%" y2="-500%" id="linearGradient-kubernetes-6">
            <stop stop-color="#fff" stop-opacity="0" offset="8%"></stop>
            <stop stop-color="#fff" stop-opacity="0.4" offset="100%"></stop>
        </linearGradient>
        <linearGradient x1="0%" y1="-2000%" x2="100%" y2="-2000%" id="linearGradient-kubernetes-7">
            <stop stop-color="#3F3177" stop-opacity="0" offset="8%"></stop>
            <stop stop-color="#E4E4E4" stop-opacity="0.6" offset="100%"></stop>
        </linearGradient>
        <linearGradient x1="0%" y1="-1250%" x2="100%" y2="-1250%" id="linearGradient-kubernetes-8">
          <stop stop-color="#3F3177" stop-opacity="0" offset="8%"></stop>
          <stop stop-color="#3F3177" stop-opacity="0.6" offset="100%"></stop>
        </linearGradient>
        <linearGradient x1="0%" y1="-1250%" x2="100%" y2="-1250%" id="linearGradient-kubernetes-9">
            <stop stop-color="#6262CC" stop-opacity="0" offset="8%"></stop>
            <stop stop-color="#6262CC" stop-opacity="0.6" offset="100%"></stop>
        </linearGradient>
        <linearGradient x1="41.8395757%" y1="13.3081337%" x2="58.6563701%" y2="80.293059%" id="linearGradient-kubernetes-10">
          <stop stop-color="#6262CC" stop-opacity="0" offset="8%"></stop>
          <stop stop-color="#6262CC" stop-opacity="0.6" offset="100%"></stop>
        </linearGradient>
    </defs>
    <g id="Page-1" stroke="none" stroke-width="1" fill="none" fill-rule="evenodd">
        <g id="kubernetes" fill-rule="nonzero">
            <path d="M441,630 L405,630 L405,537 C405,502.26 433.2615,474 468,474 L477,474 C516.7005,474 549,441.7005 549,402 C549,362.2995 516.7005,330 477,330 L468,330 C408.4485,330 360,281.55 360,222 C360,162.45 408.45,114 468,114 L475.5,114 C490.3875,114 502.5,101.88 502.5,87 L502.5,0 L538.5,0 L538.5,87 C538.5,121.74 510.2385,150 475.5,150 L468,150 C428.2995,150 396,182.2995 396,222 C396,261.7005 428.2995,294 468,294 L477,294 C536.5515,294 585,342.45 585,402 C585,461.55 536.55,510 477,510 L468,510 C453.1125,510 441,522.105 441,537 L441,630" id="Path" fill="#3DB7E2"></path>
            <path d="M672,330 L900,330 L900,294 L672,294 C637.26,294 609,322.2615 609,357 C609,391.7385 637.2615,420 672,420 L735,420 C749.8875,420 762,432.105 762,447 C762,461.895 749.895,474 735,474 L730.5,474 L469.5,474 C429.798,474 397.5,441.702 397.5,402 C397.5,362.298 429.798,330 469.5,330 L478.5,330 C538.0515,330 586.5,281.55 586.5,222 C586.5,162.45 538.05,114 478.5,114 L405,114 C390.1125,114 378,101.88 378,87 L378,0 L342,0 L342,87 C342,121.74 370.2615,150 405,150 L478.5,150 C518.202,150 550.5,182.298 550.5,222 C550.5,261.702 518.202,294 478.5,294 L469.5,294 C409.9485,294 361.5,342.45 361.5,402 C361.5,461.55 409.95,510 469.5,510 L730.5,510 L735,510 L736.5,510 L736.5,509.9625 C770.547,509.16 798,481.2375 798,447 C798,412.26 769.7385,384 735,384 L672,384 C657.1125,384 645,371.895 645,357 C645,342.105 657.105,330 672,330" id="Path" fill="#1890C6"></path>
            <path d="M271.5,294 L204,294 L204,177 C204,142.26 175.7385,114 141,114 L0,114 L0,150 L141,150 C155.8875,150 168,162.12 168,177 L168,294 L34.5,294 L34.5,330 L168,330 L168,447 C168,461.8875 155.88,474 141,474 L0,474 L0,510 L141,510 C175.74,510 204,481.7385 204,447 L204,330 L271.5,330 C286.3875,330 298.5,342.105 298.5,357 L298.5,630 L334.5,630 L334.5,357 C334.5,322.26 306.2385,294 271.5,294" id="Path" fill="#1890C6"></path>
            <path d="M241.5,330 L0,330 L0,294 L241.5,294 C256.3875,294 268.5,281.895 268.5,267 L268.5,0 L304.5,0 L304.5,267 C304.5,301.74 276.2385,330 241.5,330" id="Path" fill="#3DB7E2"></path>
            <path d="M897,337.5 L888,337.5 C886.3425,337.5 885,336.1575 885,334.5 L885,289.5 C885,287.8425 886.3425,286.5 888,286.5 L897,286.5 C898.6575,286.5 900,287.8425 900,289.5 L900,334.5 C900,336.1575 898.6575,337.5 897,337.5" id="Path" fill="#3DB7E2"></path>
            <path d="M333,12 L333,3 C333,1.3425 334.3425,0 336,0 L381,0 C382.6575,0 384,1.3425 384,3 L384,12 C384,13.6575 382.6575,15 381,15 L336,15 C334.3425,15 333,13.6575 333,12" id="Path" fill="#3DB7E2"></path>
            <path d="M495,12 L495,3 C495,1.3425 496.3425,0 498,0 L543,0 C544.6575,0 546,1.3425 546,3 L546,12 C546,13.6575 544.6575,15 543,15 L498,15 C496.3425,15 495,13.6575 495,12" id="Path" fill="#1890C6"></path>
            <path d="M291,627 L291,618 C291,616.3425 292.3425,615 294,615 L339,615 C340.6575,615 342,616.3425 342,618 L342,627 C342,628.6575 340.6575,630 339,630 L294,630 C292.3425,630 291,628.6575 291,627" id="Path" fill="#3DB7E2"></path>
            <path d="M397.5,627 L397.5,618 C397.5,616.3425 398.8425,615 400.5,615 L445.5,615 C447.1575,615 448.5,616.3425 448.5,618 L448.5,627 C448.5,628.6575 447.1575,630 445.5,630 L400.5,630 C398.8425,630 397.5,628.6575 397.5,627" id="Path" fill="#1890C6"></path>
            <path d="M261,12 L261,3 C261,1.3425 262.3425,0 264,0 L309,0 C310.6575,0 312,1.3425 312,3 L312,12 C312,13.6575 310.6575,15 309,15 L264,15 C262.3425,15 261,13.6575 261,12" id="Path" fill="#17B8C9"></path>
            <path d="M3,106.5 L12,106.5 C13.6575,106.5 15,107.8425 15,109.5 L15,154.5 C15,156.1575 13.6575,157.5 12,157.5 L3,157.5 C1.3425,157.5 0,156.1575 0,154.5 L0,109.5 C0,107.8425 1.3425,106.5 3,106.5" id="Path" fill="#3DB7E2"></path>
            <path d="M3,466.5 L12,466.5 C13.6575,466.5 15,467.8425 15,469.5 L15,514.5 C15,516.1575 13.6575,517.5 12,517.5 L3,517.5 C1.3425,517.5 0,516.1575 0,514.5 L0,469.5 C0,467.8425 1.3425,466.5 3,466.5" id="Path" fill="#3DB7E2"></path>
            <path d="M3,286.5 L12,286.5 C13.6575,286.5 15,287.8425 15,289.5 L15,334.5 C15,336.1575 13.6575,337.5 12,337.5 L3,337.5 C1.3425,337.5 0,336.1575 0,334.5 L0,289.5 C0,287.8425 1.3425,286.5 3,286.5" id="Path" fill="#1890C6"></path>
            <g id="Group" transform="translate(273.000000, 165.000000)">
                <polygon id="Path" fill="url(#linearGradient-kubernetes-1)" points="25.5 22.5 25.5 82.5 1.5 82.5 1.5 22.5"></polygon>
                <path d="M24.09,25.5 L2.91,25.5 C2.13,25.5 1.4985,24.8685 1.4985,24.0885 L1.4985,2.9085 C1.4985,2.1285 2.13,1.497 2.91,1.497 L24.09,1.497 C24.87,1.497 25.5015,2.1285 25.5015,2.9085 L25.5015,24.0885 C25.5015,24.867 24.87,25.5 24.09,25.5" id="Path" fill="#272359"></path>
            </g>
            <g id="Group" transform="translate(526.500000, 336.000000)">
                <path d="M28.5,60 C27.7695,52.5915 25.905,42.249 20.985,30.8175 C14.631,16.0605 6.4575,10.3185 0.5085,4.3965 C8.508,4.3965 16.0005,0.0015 24.0015,0.0015 C29.3295,4.977 36.7635,13.116 42.783,24.8745 C50.064,39.0945 51.9675,52.1445 52.5015,60.0015 C44.502,60 36.501,60 28.5015,60" id="Path" fill="url(#linearGradient-kubernetes-2)"></path>
                <path d="M29.91,57 L51.09,57 C51.87,57 52.5015,57.6315 52.5015,58.4115 L52.5015,79.5915 C52.5015,80.3715 51.87,81.003 51.09,81.003 L29.91,81.003 C29.13,81.003 28.4985,80.3715 28.4985,79.5915 L28.4985,58.4115 C28.4985,57.6315 29.13,57 29.91,57" id="Path" fill="#272359"></path>
            </g>
            <g id="Group" transform="translate(303.000000, 435.000000)">
                <polygon id="Path" fill="url(#linearGradient-kubernetes-3)" points="1.5 105 1.5 0 25.5 0 25.5 105"></polygon>
                <path d="M24.09,126 L2.91,126 C2.13,126 1.4985,125.3685 1.4985,124.5885 L1.4985,103.4085 C1.4985,102.6285 2.13,101.997 2.91,101.997 L24.09,101.997 C24.87,101.997 25.5015,102.6285 25.5015,103.4085 L25.5015,124.5885 C25.5015,125.367 24.87,126 24.09,126" id="Path" fill="#3F3177"></path>
            </g>
            <g id="Group" transform="translate(345.000000, 16.500000)">
                <polygon id="Path" fill="url(#linearGradient-kubernetes-4)" points="1.5 48 1.5 0 25.5 0 25.5 48"></polygon>
                <path d="M24.09,68.9985 L2.91,68.9985 C2.13,68.9985 1.4985,68.367 1.4985,67.587 L1.4985,46.407 C1.4985,45.627 2.13,44.9955 2.91,44.9955 L24.09,44.9955 C24.87,44.9955 25.5015,45.627 25.5015,46.407 L25.5015,67.587 C25.5015,68.3655 24.87,68.9985 24.09,68.9985" id="Path" fill="#3F3177"></path>
            </g>
            <g id="Group" transform="translate(15.000000, 120.000000)">
                <polygon id="Path" fill="url(#linearGradient-kubernetes-5)" points="0 0 31.5 0 31.5 24 0 24"></polygon>
                <path d="M52.5,1.4115 L52.5,22.5915 C52.5,23.3715 51.867,24.003 51.087,24.003 L29.907,24.003 C29.127,24.003 28.4955,23.3715 28.4955,22.5915 L28.4955,1.4115 C28.4955,0.6315 29.127,0 29.907,0 L51.087,0 C51.8655,0 52.4985,0.6315 52.4985,1.4115" id="Path" fill="#E4E4E4"></path>
            </g>
            <g id="Group" transform="translate(484.500000, 118.500000)">
                <path d="M50.565,49.47 C46.122,44.691 38.7315,37.878 27.975,32.322 C16.9065,26.604 6.795,24.549 0.2325,23.7345 C0.453,16.248 0.672,8.7615 0.8925,1.275 C9.177,1.863 21.5565,3.747 35.241,9.8625 C52.719,17.673 64.056,28.686 70.101,35.5275 C63.591,40.176 57.0795,44.823 50.571,49.4715" id="Path" fill="url(#linearGradient-kubernetes-6)"></path>
                <path d="M81.15,53.43 L63.915,65.733 C63.2805,66.186 62.4,66.039 61.9455,65.4045 L49.6425,48.1695 C49.1895,47.535 49.3365,46.6545 49.971,46.2 L67.206,33.897 C67.8405,33.444 68.721,33.591 69.1755,34.2255 L81.4785,51.4605 C81.9315,52.0965 81.7845,52.9755 81.15,53.43" id="Path" fill="#E4E4E4"></path>
            </g>
            <polygon id="Path" fill="url(#linearGradient-kubernetes-7)" points="561 480 636 480 636 504 561 504"></polygon>
            <path d="M657,481.41 L657,502.59 C657,503.37 656.3685,504.0015 655.5885,504.0015 L634.4085,504.0015 C633.6285,504.0015 632.997,503.37 632.997,502.59 L632.997,481.41 C632.997,480.63 633.6285,479.9985 634.4085,479.9985 L655.5885,479.9985 C656.367,479.9985 656.9985,480.63 656.9985,481.41" id="Path" fill="#E4E4E4"></path>
            <g id="Group" transform="translate(723.000000, 298.500000)">
                <polygon id="Path" fill="url(#linearGradient-kubernetes-8)" points="0 1.5 105 1.5 105 25.5 0 25.5"></polygon>
                <path d="M126,2.91 L126,24.09 C126,24.87 125.3685,25.5015 124.5885,25.5015 L103.4085,25.5015 C102.6285,25.5015 101.997,24.87 101.997,24.09 L101.997,2.91 C101.997,2.13 102.6285,1.4985 103.4085,1.4985 L124.5885,1.4985 C125.3685,1.4985 126,2.13 126,2.91" id="Path" fill="#3F3177"></path>
            </g>
            <g id="Group" transform="translate(15.000000, 298.500000)">
                <polygon id="Path" fill="url(#linearGradient-kubernetes-9)" points="0 1.5 120 1.5 120 25.5 0 25.5"></polygon>
                <path d="M141,2.91 L141,24.09 C141,24.87 140.3685,25.5015 139.5885,25.5015 L118.4085,25.5015 C117.6285,25.5015 116.997,24.87 116.997,24.09 L116.997,2.91 C116.997,2.13 117.6285,1.4985 118.4085,1.4985 L139.5885,1.4985 C140.367,1.4985 141,2.13 141,2.91" id="Path" fill="#6262CC"></path>
            </g>
            <g id="Group" transform="translate(363.000000, 171.000000)">
                <path d="M34.68,85.95 C31.596,79.1745 26.8305,66.345 27.096,49.65 C27.3855,31.545 33.4485,18.015 37.0035,11.3385 C29.7375,7.5945 22.4715,3.852 15.2055,0.1095 C10.6605,7.6695 0.741,26.5065 1.3335,52.293 C1.8615,75.2985 10.4925,92.1165 15.021,99.714 C21.5745,95.124 28.1265,90.534 34.686,85.944" id="Path" fill="url(#linearGradient-kubernetes-10)"></path>
                <path d="M28.23,116.1 L45.5745,103.95 C46.2135,103.503 46.368,102.6225 45.921,101.9835 L33.771,84.639 C33.324,84 32.4435,83.8455 31.8045,84.2925 L14.46,96.4425 C13.821,96.8895 13.6665,97.77 14.1135,98.409 L26.2635,115.7535 C26.7105,116.3925 27.591,116.547 28.23,116.1" id="Path" fill="#6262CC"></path>
            </g>
        </g>
    </g>
</svg>
